…
```r
# write_rds(eval(parse(text = paste0("or_table_", selected_index))), 
#   file = paste0("output/", paste0("or_table_", selected_index), ".rds"))


eval(parse(text = paste0("or_table_", selected_index))) 
```

```
## # A tibble: 74 x 5
##    var       rr ci_low ci_high index     
##    <chr>  <dbl>  <dbl>   <dbl> <chr>     
##  1 32    0.0498 0.0389  0.0637 tmp_f_mean
##  2 33    0.0495 0.0391  0.0627 tmp_f_mean
##  3 34    0.0493 0.0393  0.0619 tmp_f_mean
##  4 35    0.0492 0.0395  0.0613 tmp_f_mean
##  5 36    0.0492 0.0398  0.0608 tmp_f_mean
##  6 37    0.0493 0.0402  0.0604 tmp_f_mean
##  7 38    0.0495 0.0406  0.0602 tmp_f_mean
##  8 39    0.0498 0.0411  0.0602 tmp_f_mean
##  9 40    0.0502 0.0417  0.0603 tmp_f_mean
## 10 41    0.0507 0.0424  0.0606 tmp_f_mean
## # ... with 64 more rows
```
…
to_plot_slice_cum
```

```
## # A tibble: 444 x 5
##    index_value lag       OR OR_low OR_high
##          <dbl> <chr>  <dbl>  <dbl>   <dbl>
##  1          32 lag0  0.0607 0.0490  0.0752
##  2          32 lag1  0.0385 0.0313  0.0473
##  3          32 lag2  0.0586 0.0469  0.0731
##  4          32 lag3  0.0474 0.0379  0.0591
##  5          32 lag4  0.0338 0.0259  0.0439
##  6          32 lag5  0.0498 0.0389  0.0637
##  7          33 lag0  0.0605 0.0492  0.0744
##  8          33 lag1  0.0379 0.0310  0.0463
##  9          33 lag2  0.0573 0.0462  0.0710
## 10          33 lag3  0.0468 0.0378  0.0580
## # ... with 434 more rows
```
…
eval(parse(text = paste0(selected_index, "_nest_base"))) 
```

```
## # A tibble: 24 x 6
## # Groups:   site_name [24]
##    site_name     cc_lag_matrix cc_lag_only index_cb        index_dlnm pred_dlnm 
##    <chr>         <list>        <list>      <list>          <list>     <list>    
##  1 Fort Benning  <tibble>      <tibble>    <crossbss[...]> <clogit>   <crossprd>
##  2 Fort Bragg    <tibble>      <tibble>    <crossbss[...]> <clogit>   <crossprd>
##  3 MCB Camp Lej~ <tibble>      <tibble>    <crossbss[...]> <clogit>   <crossprd>
##  4 MCRD Parris ~ <tibble>      <tibble>    <crossbss[...]> <clogit>   <crossprd>
##  5 Fort Campbell <tibble>      <tibble>    <crossbss[...]> <clogit>   <crossprd>
##  6 Fort Polk     <tibble>      <tibble>    <crossbss[...]> <clogit>   <crossprd>
##  7 Fort Jackson  <tibble>      <tibble>    <crossbss[...]> <clogit>   <crossprd>
##  8 MCB Camp Pen~ <tibble>      <tibble>    <crossbss[...]> <clogit>   <crossprd>
##  9 Fort Hood     <tibble>      <tibble>    <crossbss[...]> <clogit>   <crossprd>
## 10 MCRD San Die~ <tibble>      <tibble>    <crossbss[...]> <clogit>   <crossprd>
## # ... with 14 more rows
```
…
