…
## Inspect percentages of cases above/below index value
to_density_plot_all %>% 
  filter(Index %in% "hi_f_max",  #32,426
         Value > 103) #4706
```

```
## # A tibble: 4,706 x 6
##    site_name    d_event    Index    Value index      type 
##    <chr>        <date>     <chr>    <dbl> <fct>      <fct>
##  1 Fort Benning 2011-08-09 hi_f_max  104. Heat Index Max  
##  2 Fort Benning 2012-07-25 hi_f_max  107. Heat Index Max  
##  3 Fort Benning 2009-07-16 hi_f_max  104. Heat Index Max  
##  4 Fort Benning 1999-08-13 hi_f_max  108. Heat Index Max  
##  5 Fort Benning 2011-08-03 hi_f_max  111. Heat Index Max  
##  6 Fort Benning 2005-08-22 hi_f_max  104. Heat Index Max  
##  7 Fort Benning 2005-07-26 hi_f_max  109. Heat Index Max  
##  8 Fort Benning 2007-08-13 hi_f_max  107  Heat Index Max  
##  9 Fort Benning 2010-08-03 hi_f_max  105. Heat Index Max  
## 10 Fort Benning 2011-08-05 hi_f_max  109. Heat Index Max  
## # ... with 4,696 more rows
```
…
