…
or_table_df_rod
```

```
## # A tibble: 835 x 7
##    value     or ci_low ci_high index                 index_key  or_ci           
##    <chr>  <dbl>  <dbl>   <dbl> <chr>                 <chr>      <chr>           
##  1 32    0.0498 0.0389  0.0637 Mean Temperature (°F) tmp_f_mean 0.05 (0.04, 0.0~
##  2 33    0.0495 0.0391  0.0627 Mean Temperature (°F) tmp_f_mean 0.05 (0.04, 0.0~
##  3 34    0.0493 0.0393  0.0619 Mean Temperature (°F) tmp_f_mean 0.05 (0.04, 0.0~
##  4 35    0.0492 0.0395  0.0613 Mean Temperature (°F) tmp_f_mean 0.05 (0.04, 0.0~
##  5 36    0.0492 0.0398  0.0608 Mean Temperature (°F) tmp_f_mean 0.05 (0.04, 0.0~
##  6 37    0.0493 0.0402  0.0604 Mean Temperature (°F) tmp_f_mean 0.05 (0.04, 0.0~
##  7 38    0.0495 0.0406  0.0602 Mean Temperature (°F) tmp_f_mean 0.05 (0.04, 0.0~
##  8 39    0.0498 0.0411  0.0602 Mean Temperature (°F) tmp_f_mean 0.05 (0.04, 0.0~
##  9 40    0.0502 0.0417  0.0603 Mean Temperature (°F) tmp_f_mean 0.05 (0.04, 0.0~
## 10 41    0.0507 0.0424  0.0606 Mean Temperature (°F) tmp_f_mean 0.05 (0.04, 0.0~
## # ... with 825 more rows
```
…
```r
or_table_rod <-
  or_table_df_rod  %>%
    dplyr::select(-c(index_key, or, ci_low, ci_high)) %>% 
    pivot_wider(names_from = index, values_from = or_ci)

or_table_rod
```

```
## # A tibble: 89 x 13
##    value `Mean Temperature ~` `Max Temperatu~` `Minimum Tempe~` `0600 hours Te~`
##    <chr> <chr>                <chr>            <chr>            <chr>           
##  1 32    0.05 (0.04, 0.06)    0.06 (0.04, 0.0~ 0.08 (0.07, 0.0~ 0.09 (0.07, 0.1~
##  2 33    0.05 (0.04, 0.06)    0.05 (0.04, 0.0~ 0.08 (0.07, 0.0~ 0.09 (0.08, 0.1~
##  3 34    0.05 (0.04, 0.06)    0.05 (0.04, 0.0~ 0.08 (0.07, 0.0~ 0.09 (0.08, 0.1~
##  4 35    0.05 (0.04, 0.06)    0.05 (0.04, 0.0~ 0.08 (0.07, 0.1~ 0.09 (0.08, 0.1~
##  5 36    0.05 (0.04, 0.06)    0.05 (0.04, 0.0~ 0.08 (0.07, 0.1~ 0.09 (0.08, 0.1~
##  6 37    0.05 (0.04, 0.06)    0.05 (0.04, 0.0~ 0.09 (0.07, 0.1~ 0.10 (0.08, 0.1~
##  7 38    0.05 (0.04, 0.06)    0.05 (0.04, 0.0~ 0.09 (0.08, 0.1~ 0.10 (0.08, 0.1~
##  8 39    0.05 (0.04, 0.06)    0.05 (0.04, 0.0~ 0.09 (0.08, 0.1~ 0.10 (0.09, 0.1~
##  9 40    0.05 (0.04, 0.06)    0.05 (0.04, 0.0~ 0.09 (0.08, 0.1~ 0.10 (0.09, 0.1~
## 10 41    0.05 (0.04, 0.06)    0.05 (0.04, 0.0~ 0.10 (0.08, 0.1~ 0.10 (0.09, 0.1~
## # ... with 79 more rows, and 8 more variables: `Mean Heat Index (°F)` <chr>,
## #   `Max Heat Index (°F)` <chr>, `Minimum Heat Index (°F)` <chr>,
## #   `0600 hours Heat Index (°F)` <chr>, `Mean WBGT (°F)` <chr>,
## #   `Max WBGT (°F)` <chr>, `Minimum WBGT (°F)` <chr>,
## #   `0600 hours WBGT (°F)` <chr>
```
…
